<svg xmlns="http://www.w3.org/2000/svg" width="559" height="645" fill="none" viewBox="0 0 559 645">
  <path fill="#24463B" stroke="#EF767A" stroke-width="3" d="M2.28 162.115 279.638 1.733 557 162.115v320.77L279.639 643.267 2.279 482.885v-320.77Z"/>
</svg>
