<svg xmlns="http://www.w3.org/2000/svg" width="44" height="64" fill="none" viewBox="0 0 44 64">
  <path fill="#fff" d="M32.438 13.794c2.097.963 4.322 2.013 4.357 2.03a2.434 2.434 0 0 0 3.246-1.162 2.438 2.438 0 0 0-1.162-3.246c-.091-.043-.973-.46-2.13-1a7.495 7.495 0 0 1-4.31 3.378ZM6.704 16.06c.349 0 .703-.076 1.04-.236.035-.016 2.21-1.044 4.286-1.998a7.493 7.493 0 0 1-4.394-3.337c-1.079.504-1.89.886-1.975.927a2.44 2.44 0 0 0 1.043 4.643Z"/>
  <path fill="#fff" d="M30.448 13.512a6.756 6.756 0 1 0 0-13.512 6.756 6.756 0 0 0 0 13.512Zm-16.294 0a6.756 6.756 0 1 0 0-13.512 6.756 6.756 0 0 0 0 13.512Z"/>
  <path fill="#fff" d="m40.318 17.95-.017-.016-.634-.758-.575-.576a2.914 2.914 0 0 1-1.357.343c-.434 0-.855-.094-1.25-.28-.036-.018-2.75-1.3-5.007-2.329l-1.033.945-1.362-1.284a7.408 7.408 0 0 1-.831-.186 21.01 21.01 0 0 0-1.927 1.013c.05-.298.049-.6-.011-.894.309-.18.612-.344.91-.502a7.502 7.502 0 0 1-3.637-3.567c-.419.255-.83.515-1.222.78-.574-.328-1.127-.641-1.561-.888a7.508 7.508 0 0 1-3.581 3.624c1.29.671 4.43 2.411 5.302 3.026.19.134.396.226.607.3v12.717a9.43 9.43 0 0 0 .503 3.082c-.01.101-.015.203-.015.306v2.856h.018c0 .042-.011.08-.011.123l.001 25.116a3.1 3.1 0 1 0 6.2-.001l-.002-25.116c0-.042-.01-.08-.012-.122h.466c-.002.041-.012.08-.012.121L30.266 60.9a3.1 3.1 0 0 0 6.2 0l.002-25.116c0-.042-.01-.08-.013-.122h.076a2.6 2.6 0 0 0 1.08 1.11 2.621 2.621 0 0 0 3.558-1.05c4.75-8.737 2.16-14.487-.85-17.772Zm-2.732 13.1.152-7.769c.909 1.713 1.312 4.154-.152 7.77Z"/>
  <path fill="#fff" d="M16.216 13.776a7.554 7.554 0 0 1-.72.182l-1.402 1.32-1.033-.944a480.603 480.603 0 0 0-5.009 2.328c-.395.186-.814.28-1.249.28A2.9 2.9 0 0 1 5.45 16.6l-1.007 1.096c-.03.03-.065.052-.094.083-3.01 3.285-5.6 9.035-.848 17.772a2.622 2.622 0 0 0 3.558 1.05c.418-.228.74-.559.973-.938h.045c0 .026-.007.049-.007.075v25.116a3.099 3.099 0 1 0 6.2 0l-.001-25.116c0-.026-.007-.05-.007-.075h.456c0 .026-.008.049-.008.075l-.002 25.116a3.1 3.1 0 1 0 6.2 0l.002-25.116c0-.025-.007-.05-.007-.075h.018v-2.855c0-.104-.006-.205-.016-.307.33-.95.505-1.989.505-3.082v-13.08a2.91 2.91 0 0 1-1.665-.533c-1.19-.839-2.544-1.59-3.527-2.03ZM6.78 23.413v1.276l.14 5.77c-1.19-3.183-.905-5.422-.14-7.046Z"/>
</svg>
