<svg xmlns="http://www.w3.org/2000/svg" width="78" height="77" fill="none" viewBox="0 0 78 77">
  <path fill="#fff" d="M32.902 44.157a9.094 9.094 0 0 0 12.956 0l15.87-16.037c5.775-5.859 6.78-15.25 1.757-21.778-6.06-7.885-17.342-8.42-24.105-1.59-6.763-6.83-18.045-6.295-24.105 1.59-5.022 6.528-4.018 15.92 1.758 21.778l15.869 16.037ZM50.746 5.019c3.432 0 6.613 1.59 8.755 4.386 3.348 4.352 2.762 11.032-1.356 15.183a1.634 1.634 0 0 1-1.188.502c-.419 0-.837-.167-1.172-.485a1.687 1.687 0 0 1-.017-2.377c2.963-2.98 3.432-7.734 1.088-10.797-1.506-1.942-3.733-3.064-6.11-3.064a1.68 1.68 0 0 1-1.674-1.674c0-.92.754-1.674 1.674-1.674ZM39.9 38.281l7.566-7.65a1.672 1.672 0 0 1 2.377-.017 1.667 1.667 0 0 1 0 2.36l-7.566 7.65a1.634 1.634 0 0 1-1.188.503c-.419 0-.837-.168-1.172-.486a1.667 1.667 0 0 1-.017-2.36ZM19.293 73.652H39.38A3.348 3.348 0 0 1 36.032 77H22.641a3.348 3.348 0 0 1-3.348-3.348Zm58.589-41.85v15.552a6.67 6.67 0 0 1-2.06 4.838c-7.765 7.456-4.508 4.333-14.295 13.71a6.62 6.62 0 0 0-2.042 4.402H19.276a6.62 6.62 0 0 0-2.042-4.402c-9.787-9.377-6.53-6.254-14.296-13.71a6.67 6.67 0 0 1-2.06-4.838V31.803a3.361 3.361 0 0 1 3.349-3.348H5.9a3.358 3.358 0 0 1 3.348 3.348v16.12c0 1.775.703 3.482 1.958 4.737.041.042 4.685 4.695 4.738 4.721 1.291 1.258 3.372 1.18 4.636-.084l-6.461-6.461a3.334 3.334 0 0 1 0-4.72l1.189-1.19a3.324 3.324 0 0 1 4.737 0l4.302 4.303c1.147 1.147 2.274.988 3.884.988 1.774 0 3.481.703 4.737 1.958l4.453 4.453a6.703 6.703 0 0 1 1.958 4.737 6.7 6.7 0 0 1 1.959-4.737l4.453-4.453a6.703 6.703 0 0 1 4.737-1.958c1.61 0 2.736.16 3.883-.988l4.303-4.302a3.324 3.324 0 0 1 4.737 0l1.188 1.188a3.334 3.334 0 0 1 0 4.72l-6.461 6.462c1.264 1.265 3.345 1.342 4.637.084.052-.026 4.696-4.68 4.737-4.72a6.703 6.703 0 0 0 1.959-4.738v-16.12a3.358 3.358 0 0 1 3.348-3.348h1.674a3.361 3.361 0 0 1 3.347 3.348ZM39.38 73.653h20.088A3.348 3.348 0 0 1 56.12 77H42.728a3.348 3.348 0 0 1-3.348-3.348Z"/>
</svg>
